module seniorproject-backend

go 1.17

require gopkg.in/guregu/null.v3 v3.5.0

require (
	github.com/davecgh/go-spew v1.1.0 // indirect
	github.com/pmezard/go-difflib v1.0.0 // indirect
	gopkg.in/yaml.v3 v3.0.0-20200313102051-9f266ea9e77c // indirect
)

require (
	github.com/golang/mock v1.6.0 // indirect
	github.com/gorilla/mux v1.8.0 // indirect
	github.com/lib/pq v1.10.5 // indirect
	github.com/stretchr/testify v1.7.1
)
